Metajam Example
…
summary(my_data)
##                    Length Class       Mode
## factor_metadata     3     spec_tbl_df list
## attribute_metadata 11     spec_tbl_df list
## summary_metadata    2     spec_tbl_df list
## data               45     spec_tbl_df list

Its a list of 4 dataframes! With this, everything we need is inside our R environment.

Taking a deeper look at each of these dataframes

The dataset of interest:

my_data$data
## # A tibble: 440 x 45
##    LTER_site local_site  year date       time     pH  cond ANC   acid  alkal
##    <chr>     <chr>      <dbl> <date>     <chr> <dbl> <dbl> <chr> <chr> <chr>
##  1 NWT       GREEN LAK  1985 1985-06-06 DNS    6.52  39.3 270. NP    NP   
##  2 NWT       GREEN LAK  1985 1985-06-06 DNS    6.86  43.5 295. NP    NP   
##  3 NWT       GREEN LAK  1985 1985-06-13 DNS    6.77  42.2 274.7 NP    NP   
##  4 NWT       GREEN LAK  1985 1985-06-20 DNS    6.6   37.5 265. NP    NP   
##  5 NWT       GREEN LAK  1985 1985-06-27 DNS    6.32  38.1 232. NP    NP   
##  6 NWT       GREEN LAK  1985 1985-07-02 DNS    6.27  40.7 218. NP    NP   
##  7 NWT       GREEN LAK  1985 1985-07-04 DNS    6.21  39.1 247. NP    NP   
##  8 NWT       GREEN LAK  1985 1985-07-08 DNS    6.68  40.6 267. NP    NP   
##  9 NWT       GREEN LAK  1985 1985-07-11 DNS    6.52  40.8 258. NP    NP   
## 10 NWT       GREEN LAK  1985 1985-07-16 DNS    6.58  40.8 268.3 NP    NP   
## #  with 430 more rows, and 35 more variables: `H+` <dbl>, `NH4+` <chr>,
## #   `Ca++` <dbl>, `Mg++` <dbl>, `Na+` <chr>, `K+` <dbl>, `Cl-` <chr>,
## #   `NO3-` <chr>, `SO4--` <chr>, `PO4---` <chr>, Si <chr>, cat_sum <chr>,
## #   an_sum <chr>, chg_bal <chr>, TN <chr>, TDN <chr>, PN <chr>, DON <chr>,
## #   IN <chr>, TP <chr>, TDP <chr>, PP <chr>, DOP <chr>, IP <chr>, d18O <chr>,
## #   d18O_sdev <chr>, dDeut <chr>, dD_sdev <chr>, D_excess <chr>, Trit <chr>,
## #   T_sdev <chr>, TOC <chr>, DOC <chr>, POC <chr>, comments <lgl>
…
Question: What does NP mean in the ANC column?

To answer this, we can look at the attribute metadata that came with this dataset, which looks like this:

my_data$attribute_metadata
## # A tibble: 45 x 11
##    attributeName attributeDefini measurementScale domain missingValueCode
##    <chr>         <chr>            <chr>            <chr>  <chr>           
##  1 LTER_site     LTER site name   nominal          enume <NA>            
##  2 samp_loc      sample location  nominal          enume trace           
##  3 year          year (yyyy)      dateTime         dateT trace           
##  4 date          date (yyyy-mm-d dateTime         dateT trace           
##  5 time          time collected  dateTime         dateT trace           
##  6 pH            ph; NP-not perf ratio            numer trace           
##  7 cond          conductance, pe ratio            numer trace           
##  8 ANC           acid neutralizi ratio            numer trace           
##  9 acid          acidity          ratio            numer trace           
## 10 alkal         alkalinity; NP- ratio            numer trace           
## #  with 35 more rows, and 6 more variables: missingValueCodeExplanation <chr>,
## #   formatString <chr>, unit <chr>, numberType <chr>, definition <chr>,
## #   metadata_pid <chr>
…
